{
  "teams": [
    487,
    488,
    489,
    492,
    494,
    496,
    497,
    498,
    499,
    500,
    502,
    503,
    504,
    505,
    511,
    514,
    515,
    520,
    867,
    1579
  ],
  "competitions": [
    {
      "_anwpfl_groups": [
        {
          "id": 1,
          "title": "Group #1",
          "round": 1,
          "clubs": [
            487,
            488,
            489,
            492,
            494,
            496,
            497,
            498,
            499,
            500,
            502,
            503,
            504,
            505,
            511,
            514,
            515,
            520,
            867,
            1579
          ]
        }
      ],
      "competition_id": 3938,
      "_anwpfl_rounds": "[{\"id\":1,\"title\":\"Round Title\"}]",
      "_anwpfl_type": "round-robin",
      "_anwpfl_format_robin": "double",
      "_anwpfl_format_knockout": "two",
      "_anwpfl_multistage": "",
      "_anwpfl_multistage_main": "",
      "_anwpfl_stage_title": "",
      "_anwpfl_stage_order": "0",
      "_anwpfl_group_next_id": "2",
      "_anwpfl_round_next_id": "2",
      "_anwpfl_competition_order": "0",
      "_anwpfl_bracket": "",
      "_anwpfl_bracket_options": "{}"
    }
  ],
  "standings": [
    {
      "_anwpfl_competition": "3938",
      "_anwpfl_competition_group": "1",
      "_anwpfl_table_notes": "",
      "_anwpfl_ranking_rules_current": "head_to_head_points,head_to_head_goal_difference,goals_difference,goals_scored",
      "title": "Serie A 2022-2023 &#8211; Group #1",
      "_anwpfl_points_initial": "[]"
    }
  ],
  "competition_id": 3938,
  "league_api": {
    "competition_api_id": 135,
    "season_api": 2022,
    "start": "2022-08-13",
    "end": "2023-06-04"
  },
  "season": [
    "2022-2023"
  ],
  "league_local": {
    "name": "Serie A",
    "country": "it"
  },
  "api_rounds": [
    "Regular Season - 1",
    "Regular Season - 2",
    "Regular Season - 3",
    "Regular Season - 4",
    "Regular Season - 5",
    "Regular Season - 6",
    "Regular Season - 7",
    "Regular Season - 8",
    "Regular Season - 9",
    "Regular Season - 10",
    "Regular Season - 11",
    "Regular Season - 12",
    "Regular Season - 13",
    "Regular Season - 14",
    "Regular Season - 15",
    "Regular Season - 16",
    "Regular Season - 17",
    "Regular Season - 18",
    "Regular Season - 19",
    "Regular Season - 20",
    "Regular Season - 21",
    "Regular Season - 22",
    "Regular Season - 23",
    "Regular Season - 24",
    "Regular Season - 25",
    "Regular Season - 26",
    "Regular Season - 27",
    "Regular Season - 28",
    "Regular Season - 29",
    "Regular Season - 30",
    "Regular Season - 31",
    "Regular Season - 32",
    "Regular Season - 33",
    "Regular Season - 34",
    "Regular Season - 35",
    "Regular Season - 36",
    "Regular Season - 37",
    "Regular Season - 38"
  ],
  "api_mapped_rounds": {
    "3938-1": [
      "Regular Season - 1",
      "Regular Season - 2",
      "Regular Season - 3",
      "Regular Season - 4",
      "Regular Season - 5",
      "Regular Season - 6",
      "Regular Season - 7",
      "Regular Season - 8",
      "Regular Season - 9",
      "Regular Season - 10",
      "Regular Season - 11",
      "Regular Season - 12",
      "Regular Season - 13",
      "Regular Season - 14",
      "Regular Season - 15",
      "Regular Season - 16",
      "Regular Season - 17",
      "Regular Season - 18",
      "Regular Season - 19",
      "Regular Season - 20",
      "Regular Season - 21",
      "Regular Season - 22",
      "Regular Season - 23",
      "Regular Season - 24",
      "Regular Season - 25",
      "Regular Season - 26",
      "Regular Season - 27",
      "Regular Season - 28",
      "Regular Season - 29",
      "Regular Season - 30",
      "Regular Season - 31",
      "Regular Season - 32",
      "Regular Season - 33",
      "Regular Season - 34",
      "Regular Season - 35",
      "Regular Season - 36",
      "Regular Season - 37",
      "Regular Season - 38"
    ]
  }
}
