{
  "teams": [
    553,
    575,
    617,
    619,
    949,
    950,
    951,
    955,
    956,
    1123,
    1124,
    2110,
    7513,
    12260,
    961
  ],
  "competitions": [
    {
      "_anwpfl_groups": [
        {
          "id": 1,
          "title": "Group #1",
          "round": 1,
          "clubs": [
            553,
            575,
            617,
            619,
            949,
            950,
            951,
            955,
            956,
            1123,
            1124,
            2110,
            7513,
            12260
          ]
        }
      ],
      "competition_id": 4981,
      "_anwpfl_rounds": "[{\"id\":1,\"title\":\"Round Title\"}]",
      "_anwpfl_type": "round-robin",
      "_anwpfl_format_robin": "double",
      "_anwpfl_format_knockout": "two",
      "_anwpfl_multistage": "main",
      "_anwpfl_multistage_main": "",
      "_anwpfl_stage_title": "Regular season",
      "_anwpfl_stage_order": "1",
      "_anwpfl_group_next_id": "2",
      "_anwpfl_round_next_id": "2",
      "_anwpfl_competition_order": "0",
      "_anwpfl_bracket": "",
      "_anwpfl_bracket_options": "{}"
    },
    {
      "_anwpfl_groups": [
        {
          "id": 1,
          "title": "Group #1",
          "round": 1,
          "clubs": [
            961,
            956
          ]
        }
      ],
      "competition_id": 4984,
      "_anwpfl_rounds": "[{\"id\":1,\"title\":\"Relegation play-offs\"}]",
      "_anwpfl_type": "knockout",
      "_anwpfl_format_robin": "double",
      "_anwpfl_format_knockout": "two",
      "_anwpfl_multistage": "secondary",
      "_anwpfl_multistage_main": "4981",
      "_anwpfl_stage_title": "Relegation play-offs",
      "_anwpfl_stage_order": "4",
      "_anwpfl_group_next_id": "2",
      "_anwpfl_round_next_id": "2",
      "_anwpfl_competition_order": "0",
      "_anwpfl_bracket": "",
      "_anwpfl_bracket_options": "{}"
    },
    {
      "_anwpfl_groups": [
        {
          "id": 1,
          "title": "Group #1",
          "round": 1,
          "clubs": [
            949,
            951,
            955,
            956,
            1124,
            2110,
            7513,
            12260
          ]
        }
      ],
      "competition_id": 4983,
      "_anwpfl_rounds": "[{\"id\":1,\"title\":\"Round Title\"}]",
      "_anwpfl_type": "round-robin",
      "_anwpfl_format_robin": "double",
      "_anwpfl_format_knockout": "two",
      "_anwpfl_multistage": "secondary",
      "_anwpfl_multistage_main": "4981",
      "_anwpfl_stage_title": "Play-out round",
      "_anwpfl_stage_order": "3",
      "_anwpfl_group_next_id": "2",
      "_anwpfl_round_next_id": "2",
      "_anwpfl_competition_order": "0",
      "_anwpfl_bracket": "",
      "_anwpfl_bracket_options": "{}"
    },
    {
      "_anwpfl_groups": [
        {
          "id": 1,
          "title": "Group #1",
          "round": 1,
          "clubs": [
            553,
            575,
            617,
            619,
            950,
            1123
          ]
        }
      ],
      "competition_id": 4982,
      "_anwpfl_rounds": "[{\"id\":1,\"title\":\"Round Title\"}]",
      "_anwpfl_type": "round-robin",
      "_anwpfl_format_robin": "double",
      "_anwpfl_format_knockout": "two",
      "_anwpfl_multistage": "secondary",
      "_anwpfl_multistage_main": "4981",
      "_anwpfl_stage_title": "Play-off round",
      "_anwpfl_stage_order": "2",
      "_anwpfl_group_next_id": "2",
      "_anwpfl_round_next_id": "2",
      "_anwpfl_competition_order": "0",
      "_anwpfl_bracket": "",
      "_anwpfl_bracket_options": "{}"
    }
  ],
  "standings": [
    {
      "_anwpfl_competition": "4981",
      "_anwpfl_competition_group": "1",
      "_anwpfl_table_colors": "{\"p1\":\"success\",\"p2\":\"success\",\"p3\":\"success\",\"p4\":\"success\",\"p5\":\"success\",\"p6\":\"success\",\"p7\":\"danger\",\"p8\":\"danger\",\"p9\":\"danger\",\"p10\":\"danger\",\"p11\":\"danger\",\"p12\":\"danger\",\"p13\":\"danger\",\"p14\":\"danger\"}",
      "_anwpfl_table_notes": "%success% - Qualification for the Play-off round\r\n%danger% - Qualification for the Play-out round",
      "_anwpfl_ranking_rules_current": "head_to_head_points,head_to_head_goal_difference,goals_difference,goals_scored",
      "title": "Super League 1 2021-2022 &#8211; Group #1",
      "_anwpfl_points_initial": "[]"
    },
    {
      "_anwpfl_competition": "4983",
      "_anwpfl_competition_group": "1",
      "_anwpfl_table_colors": "{\"p7\":\"warning\",\"p8\":\"danger\"}",
      "_anwpfl_table_notes": "%warning% - Qualification for the relegation play-offs\r\n%danger% - Relegation to Super League 2",
      "_anwpfl_ranking_rules_current": "head_to_head_points,head_to_head_goal_difference",
      "title": "Super League 1 2021-2022 &#8211; PlayOut &#8211; Group #1",
      "_anwpfl_points_initial": "[]",
      "_anwpfl_is_initial_data_active": "1",
      "_anwpfl_table_initial": "{\"949\":{\"played\":26,\"won\":9,\"drawn\":5,\"lost\":12,\"gf\":27,\"ga\":39,\"gd\":-12,\"points\":32},\"951\":{\"played\":26,\"won\":2,\"drawn\":7,\"lost\":17,\"gf\":9,\"ga\":47,\"gd\":-38,\"points\":13},\"955\":{\"played\":26,\"won\":10,\"drawn\":5,\"lost\":11,\"gf\":27,\"ga\":29,\"gd\":-2,\"points\":35},\"956\":{\"played\":26,\"won\":4,\"drawn\":6,\"lost\":16,\"gf\":19,\"ga\":37,\"gd\":-18,\"points\":18},\"1124\":{\"played\":26,\"won\":9,\"drawn\":10,\"lost\":7,\"gf\":33,\"ga\":32,\"gd\":1,\"points\":37},\"2110\":{\"played\":26,\"won\":8,\"drawn\":6,\"lost\":12,\"gf\":35,\"ga\":42,\"gd\":-7,\"points\":30},\"7513\":{\"played\":26,\"won\":6,\"drawn\":8,\"lost\":12,\"gf\":26,\"ga\":34,\"gd\":-8,\"points\":26},\"12260\":{\"played\":26,\"won\":6,\"drawn\":5,\"lost\":15,\"gf\":27,\"ga\":47,\"gd\":-20,\"points\":23}}"
    },
    {
      "_anwpfl_competition": "4982",
      "_anwpfl_competition_group": "1",
      "_anwpfl_table_colors": "{\"p1\":\"success\",\"p2\":\"warning\",\"p3\":\"warning\",\"p4\":\"info\"}",
      "_anwpfl_table_notes": "%success% - Qualification for the Champions League second qualifying round\t\r\n%warning% - Qualification for the Europa Conference League second qualifying round\r\n%info% - Qualification for the Europa Conference League third qualifying round",
      "_anwpfl_ranking_rules_current": "head_to_head_points,head_to_head_goal_difference",
      "title": "Super League 1 2021-2022 &#8211; Play Off &#8211; Group #1",
      "_anwpfl_points_initial": "[]",
      "_anwpfl_is_initial_data_active": "1",
      "_anwpfl_table_initial": "{\"553\":{\"played\":26,\"won\":20,\"drawn\":5,\"lost\":1,\"gf\":47,\"ga\":14,\"gd\":33,\"points\":65},\"575\":{\"played\":26,\"won\":14,\"drawn\":4,\"lost\":8,\"gf\":42,\"ga\":28,\"gd\":14,\"points\":46},\"617\":{\"played\":26,\"won\":13,\"drawn\":3,\"lost\":10,\"gf\":41,\"ga\":21,\"gd\":20,\"points\":42},\"619\":{\"played\":26,\"won\":16,\"drawn\":5,\"lost\":5,\"gf\":50,\"ga\":24,\"gd\":26,\"points\":53},\"950\":{\"played\":26,\"won\":11,\"drawn\":7,\"lost\":8,\"gf\":28,\"ga\":24,\"gd\":4,\"points\":40},\"1123\":{\"played\":26,\"won\":13,\"drawn\":6,\"lost\":7,\"gf\":28,\"ga\":21,\"gd\":7,\"points\":45}}"
    }
  ],
  "competition_id": 4981,
  "league_api": {
    "competition_api_id": 197,
    "season_api": 2021,
    "start": "2021-09-11",
    "end": "2022-06-18"
  },
  "season": [
    "2021-2022"
  ],
  "league_local": {
    "name": "Super League 1",
    "country": "gr"
  },
  "api_rounds": [
    "Regular Season - 1",
    "Regular Season - 2",
    "Regular Season - 3",
    "Regular Season - 4",
    "Regular Season - 5",
    "Regular Season - 6",
    "Regular Season - 7",
    "Regular Season - 8",
    "Regular Season - 9",
    "Regular Season - 10",
    "Regular Season - 11",
    "Regular Season - 12",
    "Regular Season - 13",
    "Regular Season - 14",
    "Regular Season - 15",
    "Regular Season - 16",
    "Regular Season - 17",
    "Regular Season - 18",
    "Regular Season - 19",
    "Regular Season - 20",
    "Regular Season - 21",
    "Regular Season - 22",
    "Regular Season - 23",
    "Regular Season - 24",
    "Regular Season - 25",
    "Regular Season - 26",
    "Championship Round - 1",
    "Relegation Round - 1",
    "Championship Round - 2",
    "Relegation Round - 2",
    "Championship Round - 3",
    "Relegation Round - 3",
    "Championship Round - 4",
    "Relegation Round - 4",
    "Championship Round - 5",
    "Relegation Round - 5",
    "Championship Round - 6",
    "Relegation Round - 6",
    "Championship Round - 7",
    "Championship Round - 8",
    "Relegation Round - 7",
    "Championship Round - 9",
    "Championship Round - 10",
    "Relegation Round"
  ],
  "api_mapped_rounds": {
    "4981-1": [
      "Regular Season - 1",
      "Regular Season - 2",
      "Regular Season - 3",
      "Regular Season - 4",
      "Regular Season - 5",
      "Regular Season - 6",
      "Regular Season - 7",
      "Regular Season - 8",
      "Regular Season - 9",
      "Regular Season - 10",
      "Regular Season - 11",
      "Regular Season - 12",
      "Regular Season - 13",
      "Regular Season - 14",
      "Regular Season - 15",
      "Regular Season - 16",
      "Regular Season - 17",
      "Regular Season - 18",
      "Regular Season - 19",
      "Regular Season - 20",
      "Regular Season - 21",
      "Regular Season - 22",
      "Regular Season - 23",
      "Regular Season - 24",
      "Regular Season - 25",
      "Regular Season - 26"
    ],
    "4982-1": [
      "Championship Round - 9",
      "Championship Round - 10",
      "Championship Round - 3",
      "Championship Round - 1",
      "Championship Round - 2",
      "Championship Round - 4",
      "Championship Round - 5",
      "Championship Round - 6",
      "Championship Round - 7",
      "Championship Round - 8"
    ],
    "4983-1": [
      "Relegation Round - 1",
      "Relegation Round - 2",
      "Relegation Round - 3",
      "Relegation Round - 4",
      "Relegation Round - 5",
      "Relegation Round - 6",
      "Relegation Round - 7"
    ],
    "4984-1": [
      "Relegation Round"
    ]
  }
}
