{
  "teams": [
    549,
    564,
    607,
    611,
    645,
    994,
    996,
    998,
    1001,
    1002,
    1004,
    1005,
    1007,
    3563,
    3573,
    3575,
    3583,
    3588,
    3603
  ],
  "competitions": [
    {
      "_anwpfl_groups": [
        {
          "id": 1,
          "title": "Group #1",
          "round": 1,
          "clubs": [
            549,
            564,
            607,
            611,
            645,
            994,
            996,
            998,
            1001,
            1002,
            1004,
            1005,
            1007,
            3563,
            3573,
            3575,
            3583,
            3588,
            3603
          ]
        }
      ],
      "competition_id": 13284,
      "_anwpfl_rounds": "[{\"id\":1,\"title\":\"\"}]",
      "_anwpfl_type": "round-robin",
      "_anwpfl_format_robin": "double",
      "_anwpfl_format_knockout": "two",
      "_anwpfl_multistage": "",
      "_anwpfl_multistage_main": "",
      "_anwpfl_stage_title": "Regular Season",
      "_anwpfl_stage_order": "1",
      "_anwpfl_group_next_id": "2",
      "_anwpfl_round_next_id": "2",
      "_anwpfl_competition_order": "0",
      "_anwpfl_bracket": "",
      "_anwpfl_bracket_options": "{}"
    }
  ],
  "standings": [
    {
      "_anwpfl_competition": "13284",
      "_anwpfl_competition_group": "1",
      "_anwpfl_table_colors": "{\"p1\":\"success\",\"p2\":\"info\",\"p3\":\"primary\",\"p4\":\"warning\",\"p16\":\"danger\",\"p17\":\"danger\",\"p18\":\"danger\",\"p19\":\"danger\"}",
      "_anwpfl_table_notes": "%success% - Qualification for the Champions League league phase\r\n%info% -  Qualification for the Champions League third qualifying round\r\n%primary% - Qualification for the Europa League second qualifying round\r\n%warning% - Qualification for the Conference League second qualifying round\r\n%danger% - Relegation to 2025\u201326 TFF First League",
      "_anwpfl_ranking_rules_current": "head_to_head_points,head_to_head_goal_difference,head_to_head_goals_scored,goals_difference,goals_scored",
      "title": "S\u00fcper Lig 2024-2025 &#8211; Group #1",
      "_anwpfl_points_initial": "[]"
    }
  ],
  "competition_id": 13284,
  "league_api": {
    "competition_api_id": 203,
    "season_api": 2024,
    "start": "2024-08-11",
    "end": "2025-06-01"
  },
  "season": [
    "2024-2025"
  ],
  "league_local": {
    "name": "S\u00fcper Lig",
    "country": "tr"
  },
  "api_rounds": [
    "Regular Season - 1",
    "Regular Season - 2",
    "Regular Season - 3",
    "Regular Season - 4",
    "Regular Season - 5",
    "Regular Season - 6",
    "Regular Season - 7",
    "Regular Season - 8",
    "Regular Season - 9",
    "Regular Season - 10",
    "Regular Season - 11",
    "Regular Season - 12",
    "Regular Season - 13",
    "Regular Season - 14",
    "Regular Season - 15",
    "Regular Season - 16",
    "Regular Season - 17",
    "Regular Season - 18",
    "Regular Season - 19",
    "Regular Season - 20",
    "Regular Season - 21",
    "Regular Season - 22",
    "Regular Season - 23",
    "Regular Season - 24",
    "Regular Season - 25",
    "Regular Season - 26",
    "Regular Season - 27",
    "Regular Season - 28",
    "Regular Season - 29",
    "Regular Season - 30",
    "Regular Season - 31",
    "Regular Season - 32",
    "Regular Season - 33",
    "Regular Season - 34",
    "Regular Season - 35",
    "Regular Season - 36",
    "Regular Season - 37",
    "Regular Season - 38"
  ],
  "api_mapped_rounds": {
    "13284-1": [
      "Regular Season - 1",
      "Regular Season - 2",
      "Regular Season - 3",
      "Regular Season - 4",
      "Regular Season - 5",
      "Regular Season - 6",
      "Regular Season - 7",
      "Regular Season - 8",
      "Regular Season - 9",
      "Regular Season - 10",
      "Regular Season - 11",
      "Regular Season - 12",
      "Regular Season - 13",
      "Regular Season - 14",
      "Regular Season - 15",
      "Regular Season - 16",
      "Regular Season - 17",
      "Regular Season - 18",
      "Regular Season - 19",
      "Regular Season - 20",
      "Regular Season - 21",
      "Regular Season - 22",
      "Regular Season - 23",
      "Regular Season - 24",
      "Regular Season - 25",
      "Regular Season - 26",
      "Regular Season - 27",
      "Regular Season - 28",
      "Regular Season - 29",
      "Regular Season - 30",
      "Regular Season - 31",
      "Regular Season - 32",
      "Regular Season - 33",
      "Regular Season - 34",
      "Regular Season - 35",
      "Regular Season - 36",
      "Regular Season - 37",
      "Regular Season - 38"
    ]
  }
}
