{
  "teams": [
    779,
    555,
    1079,
    596,
    1088,
    1993,
    597,
    6786,
    1085,
    621,
    2011,
    1083,
    1080,
    558,
    1994,
    6813
  ],
  "competitions": [
    {
      "_anwpfl_groups": [
        {
          "id": 1,
          "title": "Group #1",
          "round": 1,
          "clubs": [
            779,
            555,
            1079,
            596,
            1088,
            1993,
            597,
            6786,
            1085,
            621,
            2011,
            1083,
            1080,
            558,
            1994,
            6813
          ]
        }
      ],
      "competition_id": 9299,
      "_anwpfl_rounds": "[{\"id\":1,\"title\":\"Round Title\"}]",
      "_anwpfl_type": "round-robin",
      "_anwpfl_format_robin": "double",
      "_anwpfl_format_knockout": "two",
      "_anwpfl_multistage": "main",
      "_anwpfl_multistage_main": "",
      "_anwpfl_stage_title": "Regular Season",
      "_anwpfl_stage_order": "1",
      "_anwpfl_group_next_id": "2",
      "_anwpfl_round_next_id": "2",
      "_anwpfl_competition_order": "0",
      "_anwpfl_bracket": "",
      "_anwpfl_bracket_options": "{}"
    },
    {
      "_anwpfl_groups": [
        {
          "id": 1,
          "title": "Group #1",
          "round": 1,
          "clubs": []
        }
      ],
      "competition_id": 9300,
      "_anwpfl_rounds": "[{\"id\":1,\"title\":\"\"}]",
      "_anwpfl_type": "knockout",
      "_anwpfl_format_robin": "double",
      "_anwpfl_format_knockout": "two",
      "_anwpfl_multistage": "secondary",
      "_anwpfl_multistage_main": "9299",
      "_anwpfl_stage_title": "Relegation play-offs",
      "_anwpfl_stage_order": "2",
      "_anwpfl_group_next_id": "2",
      "_anwpfl_round_next_id": "2",
      "_anwpfl_competition_order": "0",
      "_anwpfl_bracket": "",
      "_anwpfl_bracket_options": "{}"
    }
  ],
  "standings": [
    {
      "_anwpfl_competition": "9299",
      "_anwpfl_competition_group": "1",
      "_anwpfl_table_colors": "{\"p13\":\"warning\",\"p14\":\"warning\",\"p15\":\"danger\",\"p16\":\"danger\"}",
      "_anwpfl_table_notes": "%warning% - Qualification to relegation play-offs\r\n%danger% - Relegation to First League",
      "_anwpfl_ranking_rules_current": "head_to_head_points,head_to_head_wins,head_to_head_goal_difference,head_to_head_goals_scored,wins,goals_difference,goals_scored",
      "title": "Russian Premier League 2024-2025 &#8211; Group #1",
      "_anwpfl_points_initial": "[]"
    }
  ],
  "competition_id": 9299,
  "league_api": {
    "competition_api_id": 235,
    "season_api": 2024,
    "start": "2024-07-21",
    "end": "2025-05-24"
  },
  "season": [
    "2024-2025"
  ],
  "league_local": {
    "name": "Russian Premier League",
    "country": "ru"
  },
  "api_rounds": [
    "Regular Season - 1",
    "Regular Season - 2",
    "Regular Season - 3",
    "Regular Season - 4",
    "Regular Season - 5",
    "Regular Season - 6",
    "Regular Season - 7",
    "Regular Season - 8",
    "Regular Season - 9",
    "Regular Season - 10",
    "Regular Season - 11",
    "Regular Season - 12",
    "Regular Season - 13",
    "Regular Season - 14",
    "Regular Season - 15",
    "Regular Season - 16",
    "Regular Season - 17",
    "Regular Season - 18",
    "Regular Season - 19",
    "Regular Season - 20",
    "Regular Season - 21",
    "Regular Season - 22",
    "Regular Season - 23",
    "Regular Season - 24",
    "Regular Season - 25",
    "Regular Season - 26",
    "Regular Season - 27",
    "Regular Season - 28",
    "Regular Season - 29",
    "Regular Season - 30"
  ],
  "api_mapped_rounds": {
    "9299-1": [
      "Regular Season - 1",
      "Regular Season - 2",
      "Regular Season - 3",
      "Regular Season - 4",
      "Regular Season - 5",
      "Regular Season - 6",
      "Regular Season - 7",
      "Regular Season - 8",
      "Regular Season - 9",
      "Regular Season - 10",
      "Regular Season - 11",
      "Regular Season - 12",
      "Regular Season - 13",
      "Regular Season - 14",
      "Regular Season - 15",
      "Regular Season - 16",
      "Regular Season - 17",
      "Regular Season - 18",
      "Regular Season - 19",
      "Regular Season - 20",
      "Regular Season - 21",
      "Regular Season - 22",
      "Regular Season - 23",
      "Regular Season - 24",
      "Regular Season - 25",
      "Regular Season - 26",
      "Regular Season - 27",
      "Regular Season - 28",
      "Regular Season - 29",
      "Regular Season - 30"
    ],
    "9300-1": []
  }
}
