{
  "teams": [
    2928,
    2929,
    2931,
    2932,
    2933,
    2934,
    2935,
    2936,
    2937,
    2938,
    2939,
    2940,
    2944,
    2956,
    2961,
    2977,
    10509,
    10511
  ],
  "competitions": [
    {
      "_anwpfl_groups": [
        {
          "id": 1,
          "title": "Group #1",
          "round": 1,
          "clubs": [
            2928,
            2929,
            2931,
            2932,
            2933,
            2934,
            2935,
            2936,
            2937,
            2938,
            2939,
            2940,
            2944,
            2956,
            2961,
            2977,
            10509,
            10511
          ]
        }
      ],
      "competition_id": 10636,
      "_anwpfl_rounds": "[{\"id\":1,\"title\":\"\"}]",
      "_anwpfl_type": "round-robin",
      "_anwpfl_format_robin": "double",
      "_anwpfl_format_knockout": "two",
      "_anwpfl_multistage": "",
      "_anwpfl_multistage_main": "",
      "_anwpfl_stage_title": "Regular Season",
      "_anwpfl_stage_order": "1",
      "_anwpfl_group_next_id": "2",
      "_anwpfl_round_next_id": "2",
      "_anwpfl_competition_order": "0",
      "_anwpfl_bracket": "",
      "_anwpfl_bracket_options": "{}"
    }
  ],
  "standings": [
    {
      "_anwpfl_competition": "10636",
      "_anwpfl_competition_group": "1",
      "_anwpfl_table_colors": "{\"p1\":\"success\",\"p2\":\"success\",\"p3\":\"success\",\"p16\":\"danger\",\"p17\":\"danger\",\"p18\":\"danger\"}",
      "_anwpfl_table_notes": "%success% - Qualification for AFC Champions League Elite league stage\r\n%danger% - Relegation to FD League",
      "_anwpfl_ranking_rules_current": "head_to_head_points,head_to_head_goal_difference,goals_difference,goals_scored",
      "title": "Saudi Pro League 2024-2025",
      "_anwpfl_points_initial": "[]"
    }
  ],
  "competition_id": 10636,
  "league_api": {
    "competition_api_id": 307,
    "season_api": 2024,
    "start": "2024-08-22",
    "end": "2025-05-26"
  },
  "season": [
    "2024-2025"
  ],
  "league_local": {
    "name": "Saudi Pro League",
    "country": "sa"
  },
  "api_rounds": [
    "Regular Season - 1",
    "Regular Season - 2",
    "Regular Season - 3",
    "Regular Season - 4",
    "Regular Season - 5",
    "Regular Season - 6",
    "Regular Season - 7",
    "Regular Season - 8",
    "Regular Season - 9",
    "Regular Season - 10",
    "Regular Season - 11",
    "Regular Season - 12",
    "Regular Season - 13",
    "Regular Season - 14",
    "Regular Season - 15",
    "Regular Season - 16",
    "Regular Season - 17",
    "Regular Season - 18",
    "Regular Season - 19",
    "Regular Season - 20",
    "Regular Season - 21",
    "Regular Season - 22",
    "Regular Season - 23",
    "Regular Season - 24",
    "Regular Season - 25",
    "Regular Season - 26",
    "Regular Season - 27",
    "Regular Season - 28",
    "Regular Season - 29",
    "Regular Season - 30",
    "Regular Season - 31",
    "Regular Season - 32",
    "Regular Season - 33",
    "Regular Season - 34"
  ],
  "api_mapped_rounds": {
    "10636-1": [
      "Regular Season - 1",
      "Regular Season - 2",
      "Regular Season - 3",
      "Regular Season - 4",
      "Regular Season - 5",
      "Regular Season - 6",
      "Regular Season - 7",
      "Regular Season - 8",
      "Regular Season - 9",
      "Regular Season - 10",
      "Regular Season - 11",
      "Regular Season - 12",
      "Regular Season - 13",
      "Regular Season - 14",
      "Regular Season - 15",
      "Regular Season - 16",
      "Regular Season - 17",
      "Regular Season - 18",
      "Regular Season - 19",
      "Regular Season - 20",
      "Regular Season - 21",
      "Regular Season - 22",
      "Regular Season - 23",
      "Regular Season - 24",
      "Regular Season - 25",
      "Regular Season - 26",
      "Regular Season - 27",
      "Regular Season - 28",
      "Regular Season - 29",
      "Regular Season - 30",
      "Regular Season - 31",
      "Regular Season - 32",
      "Regular Season - 33",
      "Regular Season - 34"
    ]
  }
}
