{
  "teams": [
    211,
    212,
    214,
    216,
    217,
    222,
    223,
    224,
    226,
    227,
    228,
    230,
    234,
    240,
    242,
    762,
    810,
    4716
  ],
  "competitions": [
    {
      "_anwpfl_groups": [
        {
          "id": 1,
          "title": "Group #1",
          "round": 1,
          "clubs": [
            211,
            212,
            214,
            216,
            217,
            222,
            223,
            224,
            226,
            227,
            228,
            230,
            234,
            240,
            242,
            762,
            810,
            4716
          ]
        }
      ],
      "competition_id": 4337,
      "_anwpfl_rounds": "[{\"id\":1,\"title\":\"Round Title\"}]",
      "_anwpfl_type": "round-robin",
      "_anwpfl_format_robin": "double",
      "_anwpfl_format_knockout": "two",
      "_anwpfl_multistage": "main",
      "_anwpfl_multistage_main": "",
      "_anwpfl_stage_title": "Regular Season",
      "_anwpfl_stage_order": "1",
      "_anwpfl_group_next_id": "2",
      "_anwpfl_round_next_id": "2",
      "_anwpfl_competition_order": "0",
      "_anwpfl_bracket": "",
      "_anwpfl_bracket_options": "{}"
    },
    {
      "_anwpfl_groups": [
        {
          "id": 1,
          "title": "Group #1",
          "round": 1,
          "clubs": []
        }
      ],
      "competition_id": 4338,
      "_anwpfl_rounds": "[{\"id\":1,\"title\":\"\"}]",
      "_anwpfl_type": "knockout",
      "_anwpfl_format_robin": "double",
      "_anwpfl_format_knockout": "two",
      "_anwpfl_multistage": "secondary",
      "_anwpfl_multistage_main": "4337",
      "_anwpfl_stage_title": "Relegation play-offs",
      "_anwpfl_stage_order": "2",
      "_anwpfl_group_next_id": "2",
      "_anwpfl_round_next_id": "2",
      "_anwpfl_competition_order": "0",
      "_anwpfl_bracket": "",
      "_anwpfl_bracket_options": "{}"
    }
  ],
  "standings": [
    {
      "_anwpfl_competition": "4337",
      "_anwpfl_competition_group": "1",
      "_anwpfl_table_notes": "",
      "_anwpfl_ranking_rules_current": "head_to_head_points,head_to_head_goal_difference,head_to_head_away_goals_scored,goals_difference,wins,goals_scored",
      "title": "Primeira Liga 2022-2023 &#8211; Group #1",
      "_anwpfl_points_initial": "[]"
    }
  ],
  "competition_id": 4337,
  "league_api": {
    "competition_api_id": 94,
    "season_api": 2022,
    "start": "2022-08-07",
    "end": "2023-05-28"
  },
  "season": [
    "2022-2023"
  ],
  "league_local": {
    "name": "Primeira Liga",
    "country": "pt"
  },
  "api_rounds": [
    "Regular Season - 1",
    "Regular Season - 2",
    "Regular Season - 3",
    "Regular Season - 4",
    "Regular Season - 5",
    "Regular Season - 6",
    "Regular Season - 7",
    "Regular Season - 8",
    "Regular Season - 9",
    "Regular Season - 10",
    "Regular Season - 11",
    "Regular Season - 12",
    "Regular Season - 13",
    "Regular Season - 14",
    "Regular Season - 15",
    "Regular Season - 16",
    "Regular Season - 17",
    "Regular Season - 18",
    "Regular Season - 19",
    "Regular Season - 20",
    "Regular Season - 21",
    "Regular Season - 22",
    "Regular Season - 23",
    "Regular Season - 24",
    "Regular Season - 25",
    "Regular Season - 26",
    "Regular Season - 27",
    "Regular Season - 28",
    "Regular Season - 29",
    "Regular Season - 30",
    "Regular Season - 31",
    "Regular Season - 32",
    "Regular Season - 33",
    "Regular Season - 34"
  ],
  "api_mapped_rounds": {
    "4337-1": [
      "Regular Season - 1",
      "Regular Season - 2",
      "Regular Season - 3",
      "Regular Season - 4",
      "Regular Season - 5",
      "Regular Season - 6",
      "Regular Season - 7",
      "Regular Season - 8",
      "Regular Season - 9",
      "Regular Season - 10",
      "Regular Season - 11",
      "Regular Season - 12",
      "Regular Season - 13",
      "Regular Season - 14",
      "Regular Season - 15",
      "Regular Season - 16",
      "Regular Season - 17",
      "Regular Season - 18",
      "Regular Season - 19",
      "Regular Season - 20",
      "Regular Season - 21",
      "Regular Season - 22",
      "Regular Season - 23",
      "Regular Season - 24",
      "Regular Season - 25",
      "Regular Season - 26",
      "Regular Season - 27",
      "Regular Season - 28",
      "Regular Season - 29",
      "Regular Season - 30",
      "Regular Season - 31",
      "Regular Season - 32",
      "Regular Season - 33",
      "Regular Season - 34"
    ],
    "4338-1": []
  }
}
